/* XPM */
static char * title_3_inactive_xpm[] = {
"2 26 3 1",
" 	c None",
".	c #3d3232",
"+	c #3d3232",
"..",
"++",
"++",
"++",
"++",
"++",
"++",
"++",
"++",
"++",
"++",
"++",
"++",
"++",
"++",
"++",
"++",
"++",
"++",
"++",
"++",
"++",
"++",
"++",
"++",
"++"};
