<?xml version="1.0" encoding="UTF-8"?>
<svg xmlns="http://www.w3.org/2000/svg" xmlns:xlink="http://www.w3.org/1999/xlink" width="133pt" height="133pt" viewBox="0 0 133 133" version="1.1">
<g id="surface1">
<path style=" stroke:none;fill-rule:nonzero;fill:#6BA0D4;fill-opacity:0.3;" d="M 91.667969 66.667969 C 91.667969 80.46875 80.46875 91.667969 66.667969 91.667969 C 52.863281 91.667969 41.667969 80.46875 41.667969 66.667969 C 41.667969 52.863281 52.863281 41.667969 66.667969 41.667969 C 80.46875 41.667969 91.667969 52.863281 91.667969 66.667969 Z M 91.667969 66.667969 "/>
</g>
</svg>
